{
  "project_info": {
    "project_number": "426633257890",
    "firebase_url": "https://nepanic-bb23b.firebaseio.com",
    "project_id": "nepanic-bb23b",
    "storage_bucket": "nepanic-bb23b.appspot.com"
  },
  "client": [
    {
      "client_info": {
        "mobilesdk_app_id": "1:426633257890:android:65004251b351746a1808fb",
        "android_client_info": {
          "package_name": "com.nepanic"
        }
      },
      "oauth_client": [
        {
          "client_id": "426633257890-56o66o39t8663rge9c7s4a96oldql17a.apps.googleusercontent.com",
          "client_type": 3
        }
      ],
      "api_key": [
        {
          "current_key": "AIzaSyDnGjfLqr6SFhD4krvWwhkBBSAiRiCLvDY"
        }
      ],
      "services": {
        "appinvite_service": {
          "other_platform_oauth_client": [
            {
              "client_id": "426633257890-56o66o39t8663rge9c7s4a96oldql17a.apps.googleusercontent.com",
              "client_type": 3
            },
            {
              "client_id": "426633257890-n9po484k8u5j5521t5ca6c6ov0kl7pin.apps.googleusercontent.com",
              "client_type": 2,
              "ios_info": {
                "bundle_id": "com.nepanik.app"
              }
            }
          ]
        }
      }
    }
  ],
  "configuration_version": "1"
}